Assignment 8: Sentiment Analysis - Game of Thrones
…
Now each line, on each page, is its own row, with extra starting
& trailing spaces removed. Next, I have to get the tokens
(individual words) in a tidy format by using the
tidytext::unnest_tokens() (which pulls from the
tokenizer) package, to split columns into tokens. I am
interested in words, so that’s the token I’ll use:

# Create tokens
GoT_tokens <- GoT_df %>% 
  unnest_tokens(word, text_full)
GoT_tokens

## # A tibble: 297,814 × 2
##    GoT_text                                                                word 
##    <chr>                                                                   <chr>
##  1 "                  A GAME OF THRONES\n\n\n            Book One of A So… a    
##  2 "                  A GAME OF THRONES\n\n\n            Book One of A So… game 
##  3 "                  A GAME OF THRONES\n\n\n            Book One of A So… of   
##  4 "                  A GAME OF THRONES\n\n\n            Book One of A So… thro…
##  5 "                  A GAME OF THRONES\n\n\n            Book One of A So… book 
##  6 "                  A GAME OF THRONES\n\n\n            Book One of A So… one  
##  7 "                  A GAME OF THRONES\n\n\n            Book One of A So… of   
##  8 "                  A GAME OF THRONES\n\n\n            Book One of A So… a    
##  9 "                  A GAME OF THRONES\n\n\n            Book One of A So… song 
## 10 "                  A GAME OF THRONES\n\n\n            Book One of A So… of   
## # … with 297,804 more rows

Each word now has its own row. Next, I count the words to identify
the most common words in the text. The common words can be used to
identicate stop words, which I am interested in removing from the text
later:

# Counting words
GoT_wc <- GoT_tokens %>% 
  count(word) %>% 
  arrange(-n) #arranging in descending order
GoT_wc

## # A tibble: 11,826 × 2
##    word      n
##    <chr> <int>
##  1 the   17988
##  2 and    8997
##  3 to     6640
##  4 a      6461
##  5 of     6200
##  6 he     5166
##  7 his    5161
##  8 was    3904
##  9 her    3659
## 10 you    3267
## # … with 11,816 more rows
…
# Removing stop words
GoT_stop <- GoT_tokens %>% 
  anti_join(stop_words) %>% 
  select(-GoT_text)

I check the word count again:

# Checking that stop words have been removed
GoT_swc <- GoT_stop %>% 
  count(word) %>% 
  arrange(-n)
GoT_swc

## # A tibble: 11,295 × 2
##    word       n
##    <chr>  <int>
##  1 lord    1341
##  2 ser     1023
##  3 jon      787
##  4 ned      743
##  5 tyrion   591
##  6 eyes     567
##  7 hand     567
##  8 king     542
##  9 father   512
## 10 told     504
## # … with 11,285 more rows
…
Sentiment Analysis with NRC

Let’s now return to the sentiment analysis. I get the lexicon:

get_sentiments(lexicon = "nrc")

## # A tibble: 13,872 × 2
##    word        sentiment
##    <chr>       <chr>    
##  1 abacus      trust    
##  2 abandon     fear     
##  3 abandon     negative 
##  4 abandon     sadness  
##  5 abandoned   anger    
##  6 abandoned   fear     
##  7 abandoned   negative 
##  8 abandoned   sadness  
##  9 abandonment anger    
## 10 abandonment fear     
## # … with 13,862 more rows
…
