Are we more civilized today?
…
## Rows: 47 Columns: 4
## ── Column specification ────────────────────────────────────────────────────────
## Delimiter: ";"
## chr (2): Kings, Yearasruler
## dbl (2): Start_date, End_date
## 
## ℹ Use `spec()` to retrieve the full column specification for this data.
## ℹ Specify the column types or set `show_col_types = FALSE` to quiet this message.

#Inspecting data
kings

## # A tibble: 47 × 4
##    Kings                  Start_date End_date Yearasruler
##    <chr>                       <dbl>    <dbl> <chr>      
##  1 "Gorm den Gamle"               NA       NA Unknown    
##  2 "Harald 1. Bl\xe5tand"         NA       NA Unknown    
##  3 "Svend 1. Tvesk\xe6g"          NA       NA Unknown    
##  4 "Harald 2."                  1014     1018 4          
##  5 "Knud 1. den Store"          1018     1035 17         
##  6 "Hardeknud"                  1035     1042 7          
##  7 "Magnus den Gode"            1042     1047 5          
##  8 "Svend 2. Estridsen"         1047     1074 27         
##  9 "Harald 3. Hen"              1074     1080 6          
## 10 "Knud 2. den Hellige"        1080     1086 6          
## # … with 37 more rows
…
